{
  "msg": "获取任务列表成功!", 
  "errorCode": null, 
  "detailMsg": null, 
  "success": true, 
  "data": {
    "content": [
      {
        "id": "4028817c53b6fcb80153b70ca2c90000", 
        "planId": "4028817c53b695ac0153b6dc65220001", 
        "number": "F001", 
        "hotelId": null, 
        "description": "回顾每月FCP和系统测试的预防性维修记录", 
        "endsc": "review preventive maintenance records for monthly FCP & system tests", 
        "classification": null, 
        "frequency": null, 
        "startTime": null, 
        "endTime": null, 
        "status": "已完成", 
        "creator": "changsha", 
        "createTime": "2016-03-27 03:45:01", 
        "executeUnit": "长沙顺天凯宾斯基酒店", 
        "executor": "4028814953a14bb40153a16ea647000d", 
        "finishTime": "2016-04-22 04:23:07", 
        "estimateTime": "2016-04-24 03:45:01", 
        "summary": "顺利完成", 
        "comments": null, 
        "siteId": "4028814953a14bb40153a166321d0000", 
        "orgId": null, 
        "property": "临时任务", 
        "em1": null, 
        "em2": null
      }, 
      {
        "id": "4028817c53b76ed20153b7750b400000", 
        "planId": "4028817c53b695ac0153b6de043f0003", 
        "number": "F002", 
        "hotelId": null, 
        "description": "回顾每月火警疏散路线/标记牌检查记录，每6个月检查自动防烟门和每月防火门检查记录", 
        "endsc": "review records for monthly escape route/signs inspection, 6 monthly test automatic smoke doors, monthly", 
        "classification": null, 
        "frequency": null, 
        "startTime": null, 
        "endTime": null, 
        "status": "已完成", 
        "creator": "changsha", 
        "createTime": "2016-03-27 05:42:51", 
        "executeUnit": "长沙顺天凯宾斯基酒店", 
        "executor": "4028814953a14bb40153a16ea647000d", 
        "finishTime": "2016-04-22 04:20:25", 
        "estimateTime": "2016-04-08 05:43:28", 
        "summary": null, 
        "comments": null, 
        "siteId": "4028814953a14bb40153a166321d0000", 
        "orgId": null, 
        "property": "临时任务", 
        "em1": null, 
        "em2": null
      }, 
      {
        "id": "4028817c53b76ed20153b776545b0001", 
        "planId": "4028817c53b695ac0153b6e243af0005", 
        "number": "F003", 
        "hotelId": null, 
        "description": "回顾每月库存/检查记录和年度服务/测试记录", 
        "endsc": "review monthly inventory/inspection records & annual service/testing records", 
        "classification": null, 
        "frequency": null, 
        "startTime": null, 
        "endTime": null, 
        "status": "已完成", 
        "creator": "changsha", 
        "createTime": "2016-03-27 05:44:19", 
        "executeUnit": "长沙顺天凯宾斯基酒店", 
        "executor": "4028814953a14bb40153a16ea647000d", 
        "finishTime": "2016-04-22 04:22:34", 
        "estimateTime": "2016-03-28 05:44:19", 
        "summary": null, 
        "comments": null, 
        "siteId": "4028814953a14bb40153a166321d0000", 
        "orgId": null, 
        "property": "临时任务", 
        "em1": null, 
        "em2": null
      }, 
      {
        "id": "4028817c53b780540153b787c6dd0000", 
        "planId": "4028817c53b76ed20153b7779e6a0002", 
        "number": "F004", 
        "hotelId": null, 
        "description": "所有班次的义务消防员经过培训——每个班次有经过实例培训消防队队员，回顾消防队培训记录。", 
        "endsc": "Fire brigade team has been trained for all shifts- demonstrate trained fire brigade members are available for each shift, review brigade training records", 
        "classification": null, 
        "frequency": null, 
        "startTime": null, 
        "endTime": null, 
        "status": "已完成", 
        "creator": "changsha", 
        "createTime": "2016-03-27 06:03:21", 
        "executeUnit": "长沙顺天凯宾斯基酒店", 
        "executor": "4028814953a14bb40153a16ea647000d", 
        "finishTime": "2016-04-22 04:24:24", 
        "estimateTime": "2016-03-31 06:03:58", 
        "summary": null, 
        "comments": null, 
        "siteId": "4028814953a14bb40153a166321d0000", 
        "orgId": null, 
        "property": "临时任务", 
        "em1": null, 
        "em2": null
      }, 
      {
        "id": "4028817c53b780540153b788a6410001", 
        "planId": "4028817c53b76ed20153b7779e6a0002", 
        "number": "F005", 
        "hotelId": null, 
        "description": "每月进行常规的消防演习并记录——回顾每月消防演习记录以及最近的月度测试记录日期和饭店疏散的记录日期。", 
        "endsc": "Regular fire drills take place each month and are documented- review records of monthly fire drills, record date of last monthly test and hotel evacuation", 
        "classification": null, 
        "frequency": null, 
        "startTime": null, 
        "endTime": null, 
        "status": "已完成", 
        "creator": "changsha", 
        "createTime": "2016-03-27 06:04:23", 
        "executeUnit": "长沙顺天凯宾斯基酒店", 
        "executor": "4028814953a14bb40153a16ea647000d", 
        "finishTime": "2016-04-22 04:55:40", 
        "estimateTime": "2016-04-09 06:04:49", 
        "summary": null, 
        "comments": null, 
        "siteId": "4028814953a14bb40153a166321d0000", 
        "orgId": null, 
        "property": "临时任务", 
        "em1": null, 
        "em2": null
      }, 
      {
        "id": "4028817c53b780540153b78998bd0002", 
        "planId": "4028817c53b76ed20153b7779e6a0002", 
        "number": "F006", 
        "hotelId": null, 
        "description": "多功能厅和会议厅场地设置安全注意事项－提供宴会部门一份有关在场地设置所必须注意的有关消防安全、不阻塞消防通道及安全出口指示的事项。", 
        "endsc": "Check lists are provided for function and exhibition setups- provided banquet dept with check sheets for set ups, to maintain clear evacuation path and not block exit signs/lights", 
        "classification": null, 
        "frequency": null, 
        "startTime": null, 
        "endTime": null, 
        "status": "待执行", 
        "creator": "changsha", 
        "createTime": "2016-03-27 06:05:01", 
        "executeUnit": "长沙顺天凯宾斯基酒店", 
        "executor": "4028814953a14bb40153a16ea647000d", 
        "finishTime": null, 
        "estimateTime": "2016-07-05 06:05:59", 
        "summary": null, 
        "comments": null, 
        "siteId": "4028814953a14bb40153a166321d0000", 
        "orgId": null, 
        "property": "临时任务", 
        "em1": null, 
        "em2": null
      }, 
      {
        "id": "4028817c53b780540153b789ef6d0003", 
        "planId": "4028817c53b76ed20153b7779e6a0002", 
        "number": "F007", 
        "hotelId": null, 
        "description": "发布并执行割、焊的热加工程序——工程部有包括切割和电焊的安全工作实践的程序。", 
        "endsc": "Hot work procedures for cutting and welding are issued and followed- engineering dept has procedures for safe work practices including cutting, welding", 
        "classification": null, 
        "frequency": null, 
        "startTime": null, 
        "endTime": null, 
        "status": "待执行", 
        "creator": "changsha", 
        "createTime": "2016-03-27 06:06:03", 
        "executeUnit": "长沙顺天凯宾斯基酒店", 
        "executor": "4028814953a14bb40153a16ea647000d", 
        "finishTime": null, 
        "estimateTime": "2016-06-02 06:06:18", 
        "summary": null, 
        "comments": null, 
        "siteId": "4028814953a14bb40153a166321d0000", 
        "orgId": null, 
        "property": "临时任务", 
        "em1": null, 
        "em2": null
      }, 
      {
        "id": "4028817c53b780540153b78a9d440004", 
        "planId": "4028817c53b76ed20153b7779e6a0002", 
        "number": "F008", 
        "hotelId": null, 
        "description": "发布并执行处理危险品和化学材料的书面程序——包含危险品/化学材料的库存、处理、泄露等的程序。", 
        "endsc": "Written procedures for handling hazardous materials and chemicals are issued and followed- procedures cover storage, handling, spills etc of dangerous materials/chemicals", 
        "classification": null, 
        "frequency": null, 
        "startTime": null, 
        "endTime": null, 
        "status": "已完成", 
        "creator": "changsha", 
        "createTime": "2016-03-27 06:06:34", 
        "executeUnit": "长沙顺天凯宾斯基酒店", 
        "executor": "4028814953a14bb40153a16ea647000d", 
        "finishTime": "2016-04-26 10:56:55", 
        "estimateTime": "2016-05-07 06:07:03", 
        "summary": null, 
        "comments": null, 
        "siteId": "4028814953a14bb40153a166321d0000", 
        "orgId": null, 
        "property": "临时任务", 
        "em1": null, 
        "em2": null
      }, 
      {
        "id": "4028817c53b780540153b78ccaf60007", 
        "planId": "4028817c53b76ed20153b7779e6a0002", 
        "number": "F011", 
        "hotelId": null, 
        "description": "回顾整体酒店有关消防隐患、消防通道及储藏室，消防楼梯的管理。", 
        "endsc": "Proper housekeeping has been established in all areas- review general level of housekeeping in regard to fire exposure and escape paths, check  storage and fire stair access", 
        "classification": null, 
        "frequency": null, 
        "startTime": null, 
        "endTime": null, 
        "status": "已完成", 
        "creator": "changsha", 
        "createTime": "2016-03-27 06:08:59", 
        "executeUnit": "长沙顺天凯宾斯基酒店", 
        "executor": "4028814953a14bb40153a16ea647000d", 
        "finishTime": "2016-04-22 04:11:54", 
        "estimateTime": "2016-09-28 06:09:22", 
        "summary": null, 
        "comments": null, 
        "siteId": "4028814953a14bb40153a166321d0000", 
        "orgId": null, 
        "property": "临时任务", 
        "em1": null, 
        "em2": null
      }, 
      {
        "id": "4028817c53b780540153b7904f5b000c", 
        "planId": "4028817c53b695ac0153b6dc65220001", 
        "number": "F016", 
        "hotelId": null, 
        "description": "回顾每月FCP和系统测试的预防性维修记录。", 
        "endsc": "review preventive maintenance records for monthly FCP & system tests", 
        "classification": null, 
        "frequency": null, 
        "startTime": null, 
        "endTime": null, 
        "status": "待执行", 
        "creator": "changsha", 
        "createTime": "2016-03-27 06:12:55", 
        "executeUnit": "长沙顺天凯宾斯基酒店", 
        "executor": "4028814953a14bb40153a16ea647000d", 
        "finishTime": null, 
        "estimateTime": "2016-05-31 06:13:16", 
        "summary": null, 
        "comments": null, 
        "siteId": "4028814953a14bb40153a166321d0000", 
        "orgId": null, 
        "property": "临时任务", 
        "em1": null, 
        "em2": null
      }
    ], 
    "totalPages": 2, 
    "totalElements": 14, 
    "last": false, 
    "number": 0, 
    "size": 10, 
    "sort": null, 
    "numberOfElements": 10, 
    "first": true
  }
}